%YAML 1.1
%TAG !u! tag:unity3d.com,2011:
--- !u!1045 &1
EditorBuildSettings:
  m_ObjectHideFlags: 0
  serializedVersion: 2
  m_Scenes:
  - enabled: 0
    path: 
    guid: 00000000000000000000000000000000
  - enabled: 1
    path: Assets/Scenes/Ayoub/Login.unity
    guid: 2852a7bf853fd8f40a75b3511d19942e
  - enabled: 1
    path: Assets/Scenes/Sebas/Sebas.unity
    guid: a7697919719ff2f4983067b6e8db1a70
  - enabled: 1
    path: Assets/Scenes/Sebas/Win.unity
    guid: 4c163d5e91a370d4eb41ff5aa1672c10
  - enabled: 1
    path: Assets/Scenes/Ayoub/Upgrade.unity
    guid: e5f46c34f9a9b78418fc76139a7e0104
  m_configObjects: {}
